[
    {
        "ParameterKey": "S3BucketLambda",
        "ParameterValue": "xl-lambda-function-packages"
    },
    {
        "ParameterKey": "LambdaFunctionPackage1",
        "ParameterValue": "xl-lambdafunction_1"
    },
    {
        "ParameterKey": "LambdaFunctionPackage2",
        "ParameterValue": "xl-lambdafunction_1"
    },
    {
        "ParameterKey": "LambdaFunctionPackage3",
        "ParameterValue": "xl-lambdafunction_1"
    },
    {
        "ParameterKey": "LambdaFunctionPackage4",
        "ParameterValue": "xl-lambdafunction_1"
    }
]